ST201 Data Analysis – Data Analysis
…
Example: Student Admissions at UC Berkeley

Aggregate data on applicants to graduate school at Berkeley for the six largest departments in 1973 classified by admission and sex.

The variables and their levels are as follows:

Admit: Admitted, Rejected

Gender: Male, Female

Dept: A, B, C, D, E, F

admission_dat

# A tibble: 4,526 × 3
   admit    gender dept 
   <fct>    <fct>  <ord>
 1 Admitted Male   A    
 2 Admitted Male   A    
 3 Admitted Male   A    
 4 Admitted Male   A    
 5 Admitted Male   A    
 6 Admitted Male   A    
 7 Admitted Male   A    
 8 Admitted Male   A    
 9 Admitted Male   A    
10 Admitted Male   A    
# ℹ 4,516 more rows
…
